<svg width="35" height="35" viewBox="0 0 35 35" fill="none" xmlns="http://www.w3.org/2000/svg">
<rect width="35" height="35" rx="17.5" fill="url(#paint0_linear_163_8632)"/>
<path fill-rule="evenodd" clip-rule="evenodd" d="M13.4025 9.05676C13.4025 10.101 12.5411 10.9475 11.4786 10.9475C10.4161 10.9475 9.55469 10.101 9.55469 9.05676C9.55469 8.01253 10.4161 7.16602 11.4786 7.16602C12.5411 7.16602 13.4025 8.01253 13.4025 9.05676ZM9.55469 12.5684H13.4883V24.453H9.55469V12.5684ZM24.2025 12.7077C24.1886 12.7034 24.1749 12.699 24.1612 12.6945C24.1338 12.6856 24.1065 12.6768 24.0772 12.6688C24.0244 12.657 23.9716 12.6472 23.9178 12.6386C23.7089 12.5975 23.4802 12.5684 23.2119 12.5684C20.9186 12.5684 19.4642 14.2074 18.9848 14.8405V12.5684H15.0513V24.453H18.9848V17.9705C18.9848 17.9705 21.9576 13.9016 23.2119 16.8901V24.453H27.1444V16.433C27.1444 14.6374 25.8922 13.141 24.2025 12.7077Z" fill="white"/>
<defs>
<linearGradient id="paint0_linear_163_8632" x1="4" y1="5" x2="30" y2="35" gradientUnits="userSpaceOnUse">
<stop stop-color="#00FFE0"/>
<stop offset="1" stop-color="#00BCA5"/>
</linearGradient>
</defs>
</svg>
