<svg width="244" height="72" viewBox="0 0 244 72" fill="none" xmlns="http://www.w3.org/2000/svg">
<path d="M10.7538 58.3001C10.7538 57.5915 10.6238 56.9579 10.3638 56.3992C10.1176 55.8269 9.75499 55.35 9.27614 54.9684C8.81096 54.5733 8.24318 54.2735 7.57278 54.0691C6.91606 53.8511 6.18409 53.7421 5.37688 53.7421H0V68.0497H1.62127V63.0011H5.11008C5.87625 63.0011 6.60138 62.9057 7.28547 62.715C7.96955 62.5106 8.56469 62.2108 9.07091 61.8156C9.59082 61.4205 10.0013 60.9299 10.3023 60.344C10.6033 59.7581 10.7538 59.0768 10.7538 58.3001ZM9.11196 58.3614C9.11196 58.8383 9.01619 59.2743 8.82464 59.6695C8.64678 60.051 8.37999 60.3849 8.02427 60.671C7.68223 60.9436 7.26494 61.1548 6.7724 61.3047C6.29354 61.4545 5.75996 61.5295 5.17166 61.5295H1.62127V55.2342H5.25375C6.41668 55.2342 7.34703 55.4999 8.0448 56.0313C8.75624 56.5491 9.11196 57.3258 9.11196 58.3614Z" fill="#082840"/>
<path d="M16.6636 61.9996C16.6636 61.5091 16.7388 61.0594 16.8893 60.6506C17.0535 60.2418 17.2792 59.8943 17.5666 59.6082C17.8539 59.3084 18.1891 59.0836 18.5722 58.9337C18.9689 58.7702 19.3931 58.6884 19.8445 58.6884C20.7886 58.6884 21.5137 58.9746 22.0199 59.5469C22.5261 60.1192 22.7793 60.8959 22.7793 61.877V68.0497H24.3595V61.4886C24.3595 60.8618 24.2637 60.2895 24.0722 59.7717C23.8943 59.2539 23.6275 58.8111 23.2718 58.4431C22.9297 58.0616 22.5056 57.7686 21.9994 57.5643C21.5069 57.3599 20.9391 57.2577 20.296 57.2577C19.3794 57.2577 18.6337 57.4621 18.0591 57.8708C17.4845 58.266 17.0193 58.7497 16.6636 59.322V53.1289H15.0833V68.0497H16.6636V61.9996Z" fill="#082840"/>
<path d="M33.209 58.7293C34.2077 58.7293 34.9807 58.9746 35.528 59.4651C36.089 59.942 36.3694 60.6574 36.3694 61.6112V61.9792C35.8906 61.8429 35.398 61.7339 34.8918 61.6521C34.3856 61.5704 33.7904 61.5295 33.1064 61.5295C32.436 61.5295 31.8203 61.6044 31.2593 61.7543C30.7121 61.9042 30.2332 62.1222 29.8228 62.4084C29.426 62.6945 29.1182 63.0556 28.8993 63.4917C28.6804 63.9141 28.5709 64.4046 28.5709 64.9633C28.5709 65.522 28.6804 66.0057 28.8993 66.4145C29.1318 66.8233 29.4328 67.1708 29.8022 67.4569C30.1853 67.7294 30.6095 67.9338 31.0746 68.0701C31.5535 68.2064 32.0392 68.2745 32.5317 68.2745C33.4758 68.2745 34.2556 68.0905 34.8713 67.7226C35.5006 67.3547 36 66.9323 36.3694 66.4554V68.0497H37.8881V61.5908C37.8881 60.1873 37.4982 59.1313 36.7183 58.4227C35.9385 57.7005 34.8234 57.3394 33.3732 57.3394C32.5933 57.3394 31.9024 57.4212 31.3004 57.5847C30.6984 57.7346 30.1032 57.9458 29.5149 58.2183L29.9869 59.506C30.4795 59.2743 30.9789 59.0904 31.4851 58.9541C32.005 58.8042 32.5796 58.7293 33.209 58.7293ZM33.2705 62.6945C33.9273 62.6945 34.5087 62.7422 35.0149 62.8376C35.5348 62.933 35.9932 63.0352 36.3899 63.1442V64.1662C36.3899 64.5886 36.2942 64.9769 36.1026 65.3312C35.9248 65.6719 35.6717 65.9716 35.3433 66.2305C35.0286 66.4758 34.6524 66.6734 34.2146 66.8233C33.7904 66.9595 33.3321 67.0277 32.8396 67.0277C32.4838 67.0277 32.1418 66.98 31.8134 66.8846C31.4988 66.7892 31.2183 66.653 30.972 66.4758C30.7258 66.2851 30.5274 66.0602 30.3769 65.8013C30.2401 65.5424 30.1717 65.2426 30.1717 64.902C30.1717 64.2207 30.4384 63.6824 30.972 63.2873C31.5056 62.8921 32.2718 62.6945 33.2705 62.6945Z" fill="#082840"/>
<path d="M44.4779 63.8391C44.4779 63.0488 44.5873 62.3539 44.8062 61.7543C45.0251 61.1411 45.3261 60.6302 45.7092 60.2214C46.0923 59.8126 46.537 59.506 47.0432 59.3016C47.5631 59.0972 48.1103 58.995 48.685 58.995H48.8081V57.2985C48.3019 57.2849 47.8299 57.3462 47.3921 57.4825C46.9542 57.6188 46.5506 57.8231 46.1812 58.0957C45.8118 58.3546 45.4835 58.668 45.1962 59.0359C44.9088 59.4038 44.6694 59.8058 44.4779 60.2418V57.4825H42.8976V68.0497H44.4779V63.8391Z" fill="#082840"/>
<path d="M61.2708 59.3629C60.9835 58.7634 60.5594 58.266 59.9984 57.8708C59.4375 57.4621 58.726 57.2577 57.8641 57.2577C57.4126 57.2577 57.0158 57.3122 56.6738 57.4212C56.3318 57.5302 56.0239 57.6801 55.7503 57.8708C55.4767 58.048 55.2304 58.2592 55.0115 58.5045C54.8063 58.7497 54.6147 59.0018 54.4369 59.2607V57.4825H52.8566V68.0497H54.4369V62.02C54.4369 61.5295 54.5121 61.0866 54.6626 60.6915C54.8131 60.2827 55.0183 59.9284 55.2783 59.6286C55.5519 59.3289 55.8666 59.0972 56.2223 58.9337C56.578 58.7702 56.9679 58.6884 57.3921 58.6884C58.2403 58.6884 58.9039 58.9678 59.3828 59.5264C59.8753 60.0715 60.1216 60.8414 60.1216 61.8361V68.0497H61.6813V61.9587C61.6813 61.4409 61.7565 60.9776 61.907 60.5688C62.0712 60.1601 62.2833 59.8194 62.5432 59.5469C62.8168 59.2607 63.1315 59.0495 63.4872 58.9132C63.843 58.7634 64.2192 58.6884 64.616 58.6884C65.4779 58.6884 66.1483 58.9678 66.6272 59.5264C67.1197 60.0715 67.366 60.855 67.366 61.877V68.0497H68.9462V61.5091C68.9462 60.1873 68.5973 59.1517 67.8996 58.4023C67.2018 57.6392 66.2373 57.2577 65.0059 57.2577C64.5407 57.2577 64.1166 57.3122 63.7335 57.4212C63.3641 57.5302 63.0289 57.6801 62.7279 57.8708C62.4269 58.0616 62.1533 58.2864 61.907 58.5453C61.6744 58.8042 61.4624 59.0768 61.2708 59.3629Z" fill="#082840"/>
<path d="M77.8565 58.7293C78.8552 58.7293 79.6283 58.9746 80.1755 59.4651C80.7365 59.942 81.0169 60.6574 81.0169 61.6112V61.9792C80.5381 61.8429 80.0455 61.7339 79.5393 61.6521C79.0331 61.5704 78.438 61.5295 77.7539 61.5295C77.0835 61.5295 76.4678 61.6044 75.9069 61.7543C75.3596 61.9042 74.8807 62.1222 74.4703 62.4084C74.0735 62.6945 73.7657 63.0556 73.5468 63.4917C73.3279 63.9141 73.2184 64.4046 73.2184 64.9633C73.2184 65.522 73.3279 66.0057 73.5468 66.4145C73.7794 66.8233 74.0803 67.1708 74.4498 67.4569C74.8328 67.7294 75.257 67.9338 75.7221 68.0701C76.201 68.2064 76.6867 68.2745 77.1792 68.2745C78.1233 68.2745 78.9031 68.0905 79.5188 67.7226C80.1482 67.3547 80.6475 66.9323 81.0169 66.4554V68.0497H82.5356V61.5908C82.5356 60.1873 82.1457 59.1313 81.3658 58.4227C80.586 57.7005 79.4709 57.3394 78.0207 57.3394C77.2408 57.3394 76.5499 57.4212 75.9479 57.5847C75.3459 57.7346 74.7507 57.9458 74.1624 58.2183L74.6345 59.506C75.127 59.2743 75.6264 59.0904 76.1326 58.9541C76.6525 58.8042 77.2271 58.7293 77.8565 58.7293ZM77.918 62.6945C78.5748 62.6945 79.1562 62.7422 79.6625 62.8376C80.1824 62.933 80.6407 63.0352 81.0375 63.1442V64.1662C81.0375 64.5886 80.9417 64.9769 80.7501 65.3312C80.5723 65.6719 80.3192 65.9716 79.9908 66.2305C79.6761 66.4758 79.2999 66.6734 78.8621 66.8233C78.438 66.9595 77.9796 67.0277 77.4871 67.0277C77.1313 67.0277 76.7893 66.98 76.461 66.8846C76.1463 66.7892 75.8658 66.653 75.6195 66.4758C75.3733 66.2851 75.1749 66.0602 75.0244 65.8013C74.8876 65.5424 74.8192 65.2426 74.8192 64.902C74.8192 64.2207 75.086 63.6824 75.6195 63.2873C76.1531 62.8921 76.9193 62.6945 77.918 62.6945Z" fill="#082840"/>
<path d="M96.6571 66.251L95.6515 65.3108C95.2274 65.7604 94.7485 66.1352 94.2149 66.4349C93.695 66.7347 93.093 66.8846 92.409 66.8846C91.848 66.8846 91.3281 66.7824 90.8492 66.578C90.3841 66.36 89.9736 66.067 89.6179 65.6991C89.2759 65.3176 89.0022 64.8747 88.797 64.3706C88.6055 63.8664 88.5097 63.3282 88.5097 62.7559C88.5097 62.1835 88.6055 61.6521 88.797 61.1616C88.9885 60.6574 89.2553 60.2214 89.5974 59.8535C89.9394 59.4719 90.343 59.179 90.8082 58.9746C91.2734 58.7565 91.7728 58.6475 92.3063 58.6475C93.0315 58.6475 93.6403 58.8042 94.1328 59.1176C94.6391 59.431 95.1042 59.8058 95.5284 60.2418L96.575 59.1381C96.3287 58.8792 96.0619 58.6339 95.7746 58.4023C95.4873 58.1706 95.1726 57.973 94.8306 57.8095C94.4886 57.6324 94.1123 57.4961 93.7019 57.4007C93.2914 57.3054 92.8331 57.2577 92.3269 57.2577C91.547 57.2577 90.8219 57.4075 90.1515 57.7073C89.4948 57.9935 88.9201 58.3886 88.4276 58.8928C87.9487 59.397 87.5725 59.9897 87.2989 60.671C87.0252 61.3387 86.8884 62.0473 86.8884 62.7967C86.8884 63.5462 87.0252 64.2547 87.2989 64.9224C87.5725 65.5901 87.9487 66.176 88.4276 66.6802C88.9201 67.1708 89.4948 67.5659 90.1515 67.8657C90.8219 68.1518 91.547 68.2949 92.3269 68.2949C93.3256 68.2949 94.1602 68.1042 94.8306 67.7226C95.5147 67.3411 96.1235 66.8505 96.6571 66.251Z" fill="#082840"/>
<path d="M110.436 57.4825H108.753L105.346 66.2919L101.488 57.4825H99.7438L104.567 68.0088C104.252 68.7582 103.93 69.276 103.602 69.5622C103.274 69.8483 102.87 69.9914 102.391 69.9914C102.049 69.9914 101.748 69.9573 101.488 69.8892C101.242 69.8347 100.989 69.7393 100.729 69.603L100.195 70.8498C100.551 71.027 100.907 71.1564 101.262 71.2382C101.618 71.3336 102.015 71.3813 102.453 71.3813C103.246 71.3813 103.917 71.1564 104.464 70.7068C105.025 70.2571 105.531 69.4872 105.983 68.3971L110.436 57.4825Z" fill="#082840"/>
<path d="M134.234 67.3956L131.731 64.8407C132.127 64.3229 132.49 63.7642 132.818 63.1646C133.16 62.5651 133.489 61.9247 133.803 61.2433L132.469 60.6302C132.209 61.2297 131.936 61.7952 131.648 62.3266C131.361 62.858 131.06 63.3554 130.745 63.8187L127.462 60.4871C128.515 60.1192 129.343 59.6423 129.945 59.0563C130.547 58.4568 130.848 57.6869 130.848 56.7467C130.848 56.297 130.759 55.8746 130.581 55.4794C130.403 55.0843 130.157 54.7436 129.843 54.4575C129.542 54.1577 129.179 53.926 128.755 53.7625C128.331 53.5854 127.866 53.4968 127.359 53.4968C126.785 53.4968 126.265 53.5854 125.8 53.7625C125.334 53.9397 124.938 54.1849 124.609 54.4983C124.281 54.7981 124.021 55.1592 123.829 55.5816C123.652 55.9904 123.563 56.4333 123.563 56.9102C123.563 57.4825 123.679 58.0139 123.912 58.5045C124.144 58.9814 124.507 59.506 124.999 60.0783C123.891 60.5143 123.036 61.073 122.434 61.7543C121.832 62.4356 121.531 63.26 121.531 64.2275C121.531 64.827 121.64 65.3789 121.859 65.8831C122.092 66.3736 122.407 66.796 122.803 67.1503C123.214 67.5046 123.693 67.7771 124.24 67.9679C124.801 68.1587 125.403 68.254 126.046 68.254C126.99 68.254 127.845 68.0633 128.611 67.6817C129.377 67.2866 130.089 66.7347 130.745 66.0262L133.003 68.3358L134.234 67.3956ZM129.329 56.8284C129.329 57.4689 129.097 58.0071 128.632 58.4431C128.167 58.8792 127.476 59.2539 126.559 59.5673C126.285 59.2812 126.053 59.0223 125.861 58.7906C125.683 58.5453 125.54 58.3205 125.43 58.1161C125.321 57.9117 125.239 57.7141 125.184 57.5234C125.143 57.3326 125.122 57.1282 125.122 56.9102C125.122 56.3106 125.321 55.8133 125.718 55.4181C126.114 55.023 126.641 54.8254 127.298 54.8254C127.886 54.8254 128.372 55.0161 128.755 55.3977C129.138 55.7656 129.329 56.2425 129.329 56.8284ZM129.76 65.0246C129.241 65.5969 128.68 66.0534 128.078 66.3941C127.489 66.7211 126.853 66.8846 126.169 66.8846C125.731 66.8846 125.328 66.8165 124.958 66.6802C124.589 66.544 124.267 66.3532 123.994 66.1079C123.734 65.8626 123.528 65.5765 123.378 65.2495C123.241 64.9224 123.173 64.5613 123.173 64.1662C123.173 63.553 123.392 62.9739 123.829 62.4288C124.267 61.8838 124.965 61.4341 125.923 61.0798L129.76 65.0246Z" fill="#082840"/>
<path d="M151.126 65.6582L147.022 53.7421H145.257L150.387 68.1518H151.742L155.703 56.5423L159.643 68.1518H161.018L166.149 53.7421H164.445L160.341 65.6582L156.4 53.7012H155.066L151.126 65.6582Z" fill="#082840"/>
<path d="M170.068 63.3486H178.482C178.496 63.2532 178.503 63.1646 178.503 63.0829C178.503 63.0011 178.503 62.9262 178.503 62.858C178.503 62.0814 178.394 61.3523 178.175 60.671C177.956 59.9897 177.634 59.397 177.21 58.8928C176.786 58.3886 176.266 57.9935 175.65 57.7073C175.035 57.4075 174.337 57.2577 173.557 57.2577C172.818 57.2577 172.134 57.4007 171.505 57.6869C170.889 57.973 170.356 58.3682 169.904 58.8724C169.453 59.3629 169.097 59.9488 168.837 60.6302C168.591 61.2978 168.467 62.0132 168.467 62.7763C168.467 63.5939 168.604 64.3433 168.878 65.0246C169.165 65.7059 169.548 66.2919 170.027 66.7824C170.506 67.2593 171.067 67.6341 171.71 67.9066C172.353 68.1655 173.037 68.2949 173.762 68.2949C174.775 68.2949 175.623 68.1178 176.307 67.7635C176.991 67.3956 177.6 66.9119 178.134 66.3123L177.148 65.4334C176.711 65.8831 176.225 66.2442 175.691 66.5167C175.171 66.7892 174.542 66.9255 173.803 66.9255C173.338 66.9255 172.893 66.8505 172.469 66.7007C172.045 66.5371 171.662 66.3055 171.32 66.0057C170.978 65.6923 170.698 65.3176 170.479 64.8815C170.26 64.4319 170.123 63.9209 170.068 63.3486ZM170.068 62.1835C170.123 61.6658 170.246 61.1888 170.438 60.7528C170.629 60.3168 170.875 59.942 171.176 59.6286C171.477 59.3016 171.826 59.0495 172.223 58.8724C172.62 58.6816 173.051 58.5862 173.516 58.5862C174.05 58.5862 174.515 58.6884 174.912 58.8928C175.322 59.0836 175.664 59.3425 175.938 59.6695C176.225 59.9965 176.444 60.3781 176.594 60.8141C176.759 61.2502 176.861 61.7066 176.902 62.1835H170.068Z" fill="#082840"/>
<path d="M184.635 68.0497V53.1289H183.055V68.0497H184.635Z" fill="#082840"/>
<path d="M191.668 68.0497V53.1289H190.088V68.0497H191.668Z" fill="#082840"/>
<path d="M198.557 61.9996C198.557 61.5091 198.632 61.0594 198.783 60.6506C198.947 60.2418 199.173 59.8943 199.46 59.6082C199.747 59.3084 200.083 59.0836 200.466 58.9337C200.863 58.7702 201.287 58.6884 201.738 58.6884C202.682 58.6884 203.407 58.9746 203.914 59.5469C204.42 60.1192 204.673 60.8959 204.673 61.877V68.0497H206.253V61.4886C206.253 60.8618 206.157 60.2895 205.966 59.7717C205.788 59.2539 205.521 58.8111 205.165 58.4431C204.823 58.0616 204.399 57.7686 203.893 57.5643C203.401 57.3599 202.833 57.2577 202.19 57.2577C201.273 57.2577 200.527 57.4621 199.953 57.8708C199.378 58.266 198.913 58.7497 198.557 59.322V57.4825H196.977V68.0497H198.557V61.9996Z" fill="#082840"/>
<path d="M212.209 63.3486H220.623C220.637 63.2532 220.644 63.1646 220.644 63.0829C220.644 63.0011 220.644 62.9262 220.644 62.858C220.644 62.0814 220.534 61.3523 220.315 60.671C220.096 59.9897 219.775 59.397 219.351 58.8928C218.927 58.3886 218.407 57.9935 217.791 57.7073C217.175 57.4075 216.478 57.2577 215.698 57.2577C214.959 57.2577 214.275 57.4007 213.646 57.6869C213.03 57.973 212.496 58.3682 212.045 58.8724C211.593 59.3629 211.238 59.9488 210.978 60.6302C210.731 61.2978 210.608 62.0132 210.608 62.7763C210.608 63.5939 210.745 64.3433 211.019 65.0246C211.306 65.7059 211.689 66.2919 212.168 66.7824C212.647 67.2593 213.208 67.6341 213.851 67.9066C214.494 68.1655 215.178 68.2949 215.903 68.2949C216.915 68.2949 217.764 68.1178 218.448 67.7635C219.132 67.3956 219.741 66.9119 220.274 66.3123L219.289 65.4334C218.851 65.8831 218.366 66.2442 217.832 66.5167C217.312 66.7892 216.683 66.9255 215.944 66.9255C215.479 66.9255 215.034 66.8505 214.61 66.7007C214.186 66.5371 213.803 66.3055 213.461 66.0057C213.119 65.6923 212.838 65.3176 212.619 64.8815C212.4 64.4319 212.264 63.9209 212.209 63.3486ZM212.209 62.1835C212.264 61.6658 212.387 61.1888 212.578 60.7528C212.77 60.3168 213.016 59.942 213.317 59.6286C213.618 59.3016 213.967 59.0495 214.364 58.8724C214.761 58.6816 215.192 58.5862 215.657 58.5862C216.19 58.5862 216.655 58.6884 217.052 58.8928C217.463 59.0836 217.805 59.3425 218.078 59.6695C218.366 59.9965 218.585 60.3781 218.735 60.8141C218.899 61.2502 219.002 61.7066 219.043 62.1835H212.209Z" fill="#082840"/>
<path d="M232.337 65.0859V65.0451C232.337 64.5681 232.235 64.1662 232.029 63.8391C231.838 63.5121 231.578 63.2328 231.25 63.0011C230.921 62.7695 230.552 62.5787 230.141 62.4288C229.745 62.2789 229.341 62.1427 228.931 62.02C228.575 61.911 228.233 61.802 227.904 61.693C227.576 61.584 227.282 61.4614 227.022 61.3251C226.776 61.1888 226.577 61.0321 226.427 60.855C226.276 60.6642 226.201 60.4462 226.201 60.2009V60.1601C226.201 59.724 226.386 59.3629 226.755 59.0768C227.125 58.777 227.624 58.6271 228.253 58.6271C228.773 58.6271 229.3 58.7225 229.834 58.9132C230.381 59.0904 230.901 59.3357 231.393 59.6491L232.112 58.4636C231.564 58.1093 230.955 57.83 230.285 57.6256C229.615 57.4075 228.951 57.2985 228.294 57.2985C227.774 57.2985 227.289 57.3735 226.837 57.5234C226.399 57.6596 226.016 57.864 225.688 58.1366C225.373 58.3955 225.127 58.7157 224.949 59.0972C224.771 59.4651 224.682 59.8739 224.682 60.3236V60.3644C224.682 60.855 224.785 61.2638 224.99 61.5908C225.209 61.9178 225.483 62.1904 225.811 62.4084C226.153 62.6264 226.529 62.8104 226.94 62.9602C227.364 63.0965 227.781 63.226 228.192 63.3486C228.534 63.444 228.862 63.5462 229.177 63.6552C229.505 63.7642 229.792 63.8936 230.039 64.0435C230.285 64.1798 230.477 64.3433 230.613 64.5341C230.764 64.7248 230.839 64.9497 230.839 65.2086V65.2495C230.839 65.7673 230.634 66.176 230.223 66.4758C229.813 66.7756 229.286 66.9255 228.643 66.9255C228.014 66.9255 227.385 66.8097 226.755 66.578C226.139 66.3464 225.544 66.0125 224.97 65.5765L224.169 66.7007C224.771 67.1776 225.462 67.5591 226.242 67.8453C227.022 68.1178 227.795 68.254 228.561 68.254C229.095 68.254 229.587 68.1859 230.039 68.0497C230.504 67.8998 230.901 67.6886 231.229 67.416C231.571 67.1435 231.838 66.8165 232.029 66.4349C232.235 66.0398 232.337 65.5901 232.337 65.0859Z" fill="#082840"/>
<path d="M244 65.0859V65.0451C244 64.5681 243.897 64.1662 243.692 63.8391C243.5 63.5121 243.24 63.2328 242.912 63.0011C242.584 62.7695 242.214 62.5787 241.804 62.4288C241.407 62.2789 241.004 62.1427 240.593 62.02C240.237 61.911 239.895 61.802 239.567 61.693C239.239 61.584 238.944 61.4614 238.684 61.3251C238.438 61.1888 238.24 61.0321 238.089 60.855C237.939 60.6642 237.864 60.4462 237.864 60.2009V60.1601C237.864 59.724 238.048 59.3629 238.418 59.0768C238.787 58.777 239.286 58.6271 239.916 58.6271C240.436 58.6271 240.962 58.7225 241.496 58.9132C242.043 59.0904 242.563 59.3357 243.056 59.6491L243.774 58.4636C243.227 58.1093 242.618 57.83 241.948 57.6256C241.277 57.4075 240.614 57.2985 239.957 57.2985C239.437 57.2985 238.951 57.3735 238.5 57.5234C238.062 57.6596 237.679 57.864 237.351 58.1366C237.036 58.3955 236.79 58.7157 236.612 59.0972C236.434 59.4651 236.345 59.8739 236.345 60.3236V60.3644C236.345 60.855 236.448 61.2638 236.653 61.5908C236.872 61.9178 237.145 62.1904 237.474 62.4084C237.816 62.6264 238.192 62.8104 238.602 62.9602C239.027 63.0965 239.444 63.226 239.854 63.3486C240.196 63.444 240.525 63.5462 240.839 63.6552C241.168 63.7642 241.455 63.8936 241.701 64.0435C241.948 64.1798 242.139 64.3433 242.276 64.5341C242.426 64.7248 242.502 64.9497 242.502 65.2086V65.2495C242.502 65.7673 242.296 66.176 241.886 66.4758C241.476 66.7756 240.949 66.9255 240.306 66.9255C239.676 66.9255 239.047 66.8097 238.418 66.578C237.802 66.3464 237.207 66.0125 236.632 65.5765L235.832 66.7007C236.434 67.1776 237.125 67.5591 237.905 67.8453C238.684 68.1178 239.457 68.254 240.224 68.254C240.757 68.254 241.25 68.1859 241.701 68.0497C242.166 67.8998 242.563 67.6886 242.892 67.416C243.234 67.1435 243.5 66.8165 243.692 66.4349C243.897 66.0398 244 65.5901 244 65.0859Z" fill="#082840"/>
<path fill-rule="evenodd" clip-rule="evenodd" d="M3.94299e-06 9.01074H5.41388V16.7805H5.41452C5.41455 26.7077 13.4516 34.7552 23.366 34.7552C33.2698 34.7552 41.3004 26.7246 41.3173 16.8117H41.314V9.01074H46.7123V16.7805H46.7126C46.7126 22.9828 44.2518 28.9312 39.8716 33.3169C35.4915 37.7024 29.5507 40.1663 23.3563 40.1663C17.1618 40.1663 11.221 37.7024 6.8409 33.3169C2.46809 28.9385 0.00825937 23.0028 2.0762e-05 16.8117H3.94299e-06V16.7941C1.31508e-06 16.7896 0 16.7851 0 16.7805H3.94299e-06V9.01074Z" fill="#082840"/>
<rect width="5.40068" height="18.0934" transform="matrix(-0.707107 0.707107 0.707107 0.707107 14.4053 0.0332031)" fill="#082840"/>
<path fill-rule="evenodd" clip-rule="evenodd" d="M10.6255 12.2679C10.6255 12.2679 11.6736 8.99512 16.995 8.99512C19.6595 8.99512 21.5585 9.82069 23.449 10.6425C25.3225 11.457 27.1876 12.2679 29.7812 12.2679C34.9919 12.2679 36.1186 8.99512 36.1186 8.99512L36.1113 16.8511H36.1119C36.1119 18.5259 35.7823 20.1844 35.1418 21.7319C34.5015 23.2793 33.5627 24.6853 32.3795 25.8696C31.1961 27.054 29.7913 27.9935 28.2452 28.6344C26.6991 29.2754 25.0419 29.6053 23.3685 29.6053C21.695 29.6053 20.0378 29.2754 18.4917 28.6344C16.9456 27.9935 15.5408 27.054 14.3575 25.8696C13.1741 24.6853 12.2355 23.2793 11.595 21.7319C10.9546 20.1844 10.625 18.5259 10.625 16.8511H10.6255V12.2679Z" fill="url(#paint0_linear_163_8613)"/>
<path fill-rule="evenodd" clip-rule="evenodd" d="M127.905 40.1759C136.512 40.1759 143.49 33.198 143.49 24.5904C143.49 15.9828 136.512 9.00488 127.905 9.00488C119.297 9.00488 112.319 15.9828 112.319 24.5904C112.319 33.198 119.297 40.1759 127.905 40.1759ZM127.904 34.8729C133.583 34.8729 138.187 30.2692 138.187 24.5904C138.187 18.9114 133.583 14.3078 127.904 14.3078C122.226 14.3078 117.622 18.9114 117.622 24.5904C117.622 30.2692 122.226 34.8729 127.904 34.8729Z" fill="#082840"/>
<path fill-rule="evenodd" clip-rule="evenodd" d="M83.5382 24.5904C83.5382 33.198 76.5603 40.1759 67.9527 40.1759C64.0109 40.1759 60.4109 38.7126 57.6663 36.2995V48.0726H52.3672V24.5904V9.00488H57.6663V12.8813C60.4109 10.4682 64.0109 9.00488 67.9527 9.00488C76.5603 9.00488 83.5382 15.9828 83.5382 24.5904ZM78.2348 24.5903C78.2348 30.2692 73.6311 34.8729 67.9523 34.8729C62.2733 34.8729 57.6697 30.2692 57.6697 24.5903C57.6697 18.9114 62.2733 14.3078 67.9523 14.3078C73.6311 14.3078 78.2348 18.9114 78.2348 24.5903Z" fill="#082840"/>
<path fill-rule="evenodd" clip-rule="evenodd" d="M92.717 0H98.0161V9.00496H108.303V14.304H98.0161V24.5905H98.0204V24.5905C98.0204 30.2693 102.624 34.8727 108.303 34.8731V40.176C106.256 40.176 104.229 39.7728 102.338 38.9897C100.447 38.2063 98.7292 37.0582 97.2819 35.6111C95.8347 34.1638 94.6867 32.4457 93.9034 30.5548C93.1246 28.6745 92.7216 26.66 92.7171 24.6251H92.717V24.5905V14.304H87.418L87.418 9.00496H92.717V0Z" fill="#082840"/>
<path fill-rule="evenodd" clip-rule="evenodd" d="M154.851 9.00488H149.552V24.625C149.561 28.746 151.202 32.6963 154.117 35.611C157.039 38.5339 161.004 40.1759 165.137 40.1759C169.271 40.1759 173.235 38.5339 176.158 35.611C176.875 34.8936 177.516 34.1135 178.073 33.2836C178.631 34.1135 179.271 34.8936 179.989 35.611C182.911 38.5339 186.876 40.1759 191.009 40.1759C195.143 40.1759 199.107 38.5339 202.03 35.611C204.945 32.6963 206.585 28.746 206.595 24.625V24.5985V24.5904V9.00488H201.296V24.5904H201.292C201.292 30.2693 196.689 34.873 191.01 34.873C185.331 34.873 180.727 30.2693 180.727 24.5904H180.723V9.00488H175.424V24.5904H175.42C175.42 30.2693 170.817 34.873 165.138 34.873C159.459 34.873 154.855 30.2693 154.855 24.5904H154.851V9.00488Z" fill="#082840"/>
<path fill-rule="evenodd" clip-rule="evenodd" d="M218.127 9.00488H212.828V24.5558V24.5823V24.5904V40.1759H218.127V24.5904H218.131C218.131 18.9114 222.734 14.3078 228.413 14.3078C234.092 14.3078 238.696 18.9114 238.696 24.5904H238.7V40.1759H243.999V24.5558C243.99 20.4347 242.349 16.4844 239.434 13.5698C236.511 10.6469 232.547 9.00488 228.414 9.00488C224.617 9.00488 220.962 10.3904 218.127 12.8814V9.00488Z" fill="#082840"/>
<defs>
<linearGradient id="paint0_linear_163_8613" x1="23.3718" y1="8.99512" x2="23.3718" y2="29.6053" gradientUnits="userSpaceOnUse">
<stop stop-color="#00FFE0"/>
<stop offset="1" stop-color="#00BCA5"/>
</linearGradient>
</defs>
</svg>
