<svg width="251" height="74" viewBox="0 0 251 74" fill="none" xmlns="http://www.w3.org/2000/svg">
<path d="M11.0623 60.4733C11.0623 59.7444 10.9286 59.0926 10.6611 58.5179C10.4078 57.9292 10.0348 57.4386 9.54225 57.0461C9.06373 56.6396 8.47966 56.3313 7.79003 56.121C7.11447 55.8967 6.3615 55.7846 5.53113 55.7846H0V70.5026H1.66779V65.3092H5.25668C6.04483 65.3092 6.79076 65.2111 7.49447 65.0149C8.19818 64.8046 8.8104 64.4962 9.33114 64.0898C9.86596 63.6833 10.2882 63.1786 10.5978 62.5759C10.9074 61.9732 11.0623 61.2723 11.0623 60.4733ZM9.37336 60.5364C9.37336 61.027 9.27484 61.4755 9.0778 61.882C8.89484 62.2745 8.6204 62.6179 8.25447 62.9123C7.90262 63.1927 7.47335 63.4099 6.96669 63.5641C6.47409 63.7183 5.92521 63.7954 5.32002 63.7954H1.66779V57.3195H5.40447C6.60077 57.3195 7.55781 57.5928 8.27559 58.1395C9.00744 58.6721 9.37336 59.4711 9.37336 60.5364Z" fill="white"/>
<path d="M17.1416 64.279C17.1416 63.7744 17.219 63.3118 17.3738 62.8913C17.5427 62.4708 17.775 62.1133 18.0705 61.819C18.3661 61.5106 18.7109 61.2793 19.1049 61.1251C19.5131 60.9569 19.9494 60.8728 20.4138 60.8728C21.385 60.8728 22.1309 61.1672 22.6516 61.7559C23.1724 62.3446 23.4327 63.1436 23.4327 64.1528V70.5026H25.0583V63.7533C25.0583 63.1085 24.9598 62.5198 24.7628 61.9872C24.5798 61.4545 24.3053 60.999 23.9394 60.6205C23.5876 60.228 23.1513 59.9267 22.6305 59.7164C22.1239 59.5061 21.5398 59.401 20.8783 59.401C19.9353 59.401 19.1683 59.6113 18.5772 60.0318C17.9861 60.4383 17.5075 60.9359 17.1416 61.5246V55.1538H15.5161V70.5026H17.1416V64.279Z" fill="white"/>
<path d="M34.1617 60.9149C35.1891 60.9149 35.9843 61.1672 36.5472 61.6718C37.1243 62.1624 37.4128 62.8983 37.4128 63.8795V64.258C36.9202 64.1178 36.4135 64.0056 35.8928 63.9215C35.3721 63.8374 34.7598 63.7954 34.0561 63.7954C33.3665 63.7954 32.7332 63.8725 32.1561 64.0267C31.5931 64.1809 31.1006 64.4051 30.6783 64.6995C30.2702 64.9939 29.9535 65.3653 29.7283 65.8139C29.5031 66.2484 29.3905 66.753 29.3905 67.3277C29.3905 67.9024 29.5031 68.4 29.7283 68.8205C29.9676 69.2411 30.2772 69.5985 30.6572 69.8929C31.0513 70.1732 31.4876 70.3835 31.9661 70.5236C32.4587 70.6638 32.9583 70.7339 33.465 70.7339C34.4361 70.7339 35.2383 70.5447 35.8717 70.1662C36.5191 69.7877 37.0328 69.3532 37.4128 68.8626V70.5026H38.975V63.8585C38.975 62.4147 38.5739 61.3284 37.7717 60.5995C36.9695 59.8566 35.8224 59.4851 34.3306 59.4851C33.5283 59.4851 32.8176 59.5692 32.1983 59.7374C31.5791 59.8916 30.9669 60.1089 30.3617 60.3892L30.8472 61.7138C31.3539 61.4755 31.8676 61.2863 32.3883 61.1461C32.9232 60.992 33.5143 60.9149 34.1617 60.9149ZM34.225 64.9939C34.9006 64.9939 35.4987 65.0429 36.0195 65.141C36.5543 65.2392 37.0258 65.3443 37.4339 65.4564V66.5077C37.4339 66.9422 37.3354 67.3417 37.1384 67.7062C36.9554 68.0566 36.695 68.365 36.3572 68.6313C36.0335 68.8836 35.6465 69.0869 35.1961 69.2411C34.7598 69.3812 34.2883 69.4513 33.7817 69.4513C33.4157 69.4513 33.0639 69.4023 32.7261 69.3041C32.4024 69.206 32.1139 69.0658 31.8606 68.8836C31.6072 68.6874 31.4031 68.4561 31.2483 68.1898C31.1076 67.9234 31.0372 67.6151 31.0372 67.2646C31.0372 66.5638 31.3117 66.0101 31.8606 65.6036C32.4094 65.1971 33.1976 64.9939 34.225 64.9939Z" fill="white"/>
<path d="M45.7539 66.1713C45.7539 65.3583 45.8664 64.6434 46.0916 64.0267C46.3168 63.3959 46.6264 62.8703 47.0205 62.4497C47.4146 62.0292 47.872 61.7138 48.3927 61.5036C48.9276 61.2933 49.4905 61.1882 50.0816 61.1882H50.2083V59.4431C49.6876 59.429 49.202 59.4921 48.7516 59.6323C48.3013 59.7725 47.8861 59.9827 47.5061 60.2631C47.1261 60.5294 46.7883 60.8518 46.4927 61.2302C46.1972 61.6087 45.9509 62.0222 45.7539 62.4708V59.6323H44.1283V70.5026H45.7539V66.1713Z" fill="white"/>
<path d="M63.0286 61.5667C62.733 60.9499 62.2967 60.4383 61.7197 60.0318C61.1426 59.6113 60.4108 59.401 59.5241 59.401C59.0597 59.401 58.6515 59.4571 58.2997 59.5692C57.9478 59.6814 57.6311 59.8355 57.3497 60.0318C57.0682 60.214 56.8148 60.4313 56.5897 60.6836C56.3785 60.9359 56.1815 61.1952 55.9985 61.4615V59.6323H54.373V70.5026H55.9985V64.3C55.9985 63.7954 56.0759 63.3398 56.2308 62.9333C56.3856 62.5128 56.5967 62.1484 56.8641 61.84C57.1456 61.5316 57.4693 61.2933 57.8352 61.1251C58.2011 60.9569 58.6022 60.8728 59.0385 60.8728C59.9111 60.8728 60.5937 61.1602 61.0863 61.7349C61.593 62.2956 61.8463 63.0875 61.8463 64.1108V70.5026H63.4508V64.2369C63.4508 63.7043 63.5282 63.2277 63.683 62.8072C63.8519 62.3867 64.07 62.0362 64.3375 61.7559C64.6189 61.4615 64.9426 61.2443 65.3086 61.1041C65.6745 60.9499 66.0615 60.8728 66.4697 60.8728C67.3563 60.8728 68.046 61.1602 68.5386 61.7349C69.0452 62.2956 69.2986 63.1015 69.2986 64.1528V70.5026H70.9241V63.7744C70.9241 62.4147 70.5653 61.3494 69.8475 60.5784C69.1297 59.7935 68.1375 59.401 66.8708 59.401C66.3923 59.401 65.956 59.4571 65.5619 59.5692C65.1819 59.6814 64.8371 59.8355 64.5275 60.0318C64.2178 60.228 63.9363 60.4593 63.683 60.7256C63.4437 60.992 63.2256 61.2723 63.0286 61.5667Z" fill="white"/>
<path d="M80.09 60.9149C81.1174 60.9149 81.9126 61.1672 82.4756 61.6718C83.0526 62.1624 83.3412 62.8983 83.3412 63.8795V64.258C82.8486 64.1178 82.3419 64.0056 81.8212 63.9215C81.3004 63.8374 80.6882 63.7954 79.9845 63.7954C79.2949 63.7954 78.6615 63.8725 78.0845 64.0267C77.5215 64.1809 77.0289 64.4051 76.6067 64.6995C76.1985 64.9939 75.8819 65.3653 75.6567 65.8139C75.4315 66.2484 75.3189 66.753 75.3189 67.3277C75.3189 67.9024 75.4315 68.4 75.6567 68.8205C75.8959 69.2411 76.2056 69.5985 76.5856 69.8929C76.9796 70.1732 77.4159 70.3835 77.8945 70.5236C78.3871 70.6638 78.8867 70.7339 79.3934 70.7339C80.3645 70.7339 81.1667 70.5447 81.8 70.1662C82.4474 69.7877 82.9612 69.3532 83.3412 68.8626V70.5026H84.9034V63.8585C84.9034 62.4147 84.5023 61.3284 83.7001 60.5995C82.8978 59.8566 81.7508 59.4851 80.2589 59.4851C79.4567 59.4851 78.746 59.5692 78.1267 59.7374C77.5074 59.8916 76.8952 60.1089 76.29 60.3892L76.7756 61.7138C77.2822 61.4755 77.7959 61.2863 78.3167 61.1461C78.8515 60.992 79.4426 60.9149 80.09 60.9149ZM80.1534 64.9939C80.8289 64.9939 81.4271 65.0429 81.9478 65.141C82.4826 65.2392 82.9541 65.3443 83.3623 65.4564V66.5077C83.3623 66.9422 83.2637 67.3417 83.0667 67.7062C82.8838 68.0566 82.6234 68.365 82.2856 68.6313C81.9619 68.8836 81.5748 69.0869 81.1245 69.2411C80.6882 69.3812 80.2167 69.4513 79.71 69.4513C79.3441 69.4513 78.9922 69.4023 78.6545 69.3041C78.3308 69.206 78.0423 69.0658 77.7889 68.8836C77.5356 68.6874 77.3315 68.4561 77.1767 68.1898C77.0359 67.9234 76.9656 67.6151 76.9656 67.2646C76.9656 66.5638 77.24 66.0101 77.7889 65.6036C78.3378 65.1971 79.1259 64.9939 80.1534 64.9939Z" fill="white"/>
<path d="M99.43 68.6523L98.3956 67.6852C97.9593 68.1477 97.4667 68.5332 96.9178 68.8416C96.3829 69.1499 95.7637 69.3041 95.06 69.3041C94.4829 69.3041 93.9481 69.199 93.4555 68.9887C92.977 68.7645 92.5548 68.4631 92.1889 68.0846C91.837 67.6922 91.5555 67.2366 91.3444 66.718C91.1474 66.1993 91.0489 65.6457 91.0489 65.0569C91.0489 64.4682 91.1474 63.9215 91.3444 63.4169C91.5415 62.8983 91.8159 62.4497 92.1678 62.0713C92.5196 61.6788 92.9348 61.3774 93.4133 61.1672C93.8918 60.9429 94.4055 60.8308 94.9544 60.8308C95.7004 60.8308 96.3267 60.992 96.8333 61.3144C97.3541 61.6367 97.8326 62.0222 98.2689 62.4708L99.3455 61.3354C99.0922 61.0691 98.8178 60.8167 98.5222 60.5784C98.2267 60.3402 97.903 60.1369 97.5511 59.9687C97.1992 59.7865 96.8122 59.6463 96.39 59.5482C95.9678 59.4501 95.4963 59.401 94.9755 59.401C94.1733 59.401 93.4274 59.5552 92.7378 59.8636C92.0622 60.1579 91.4711 60.5644 90.9644 61.0831C90.4718 61.6017 90.0848 62.2115 89.8033 62.9123C89.5218 63.5991 89.3811 64.328 89.3811 65.099C89.3811 65.8699 89.5218 66.5988 89.8033 67.2857C90.0848 67.9725 90.4718 68.5752 90.9644 69.0939C91.4711 69.5985 92.0622 70.005 92.7378 70.3134C93.4274 70.6077 94.1733 70.7549 94.9755 70.7549C96.003 70.7549 96.8615 70.5587 97.5511 70.1662C98.2548 69.7737 98.8811 69.2691 99.43 68.6523Z" fill="white"/>
<path d="M113.604 59.6323H111.873L108.369 68.6944L104.4 59.6323H102.605L107.566 70.4606C107.243 71.2315 106.912 71.7641 106.574 72.0585C106.236 72.3529 105.821 72.5 105.329 72.5C104.977 72.5 104.667 72.465 104.4 72.3949C104.146 72.3389 103.886 72.2407 103.619 72.1006L103.07 73.3831C103.436 73.5654 103.802 73.6985 104.167 73.7826C104.533 73.8807 104.942 73.9298 105.392 73.9298C106.208 73.9298 106.898 73.6985 107.461 73.2359C108.038 72.7734 108.559 71.9814 109.023 70.86L113.604 59.6323Z" fill="white"/>
<path d="M138.085 69.8298L135.51 67.2016C135.918 66.6689 136.291 66.0942 136.629 65.4774C136.98 64.8607 137.318 64.2019 137.642 63.501L136.27 62.8703C136.002 63.487 135.721 64.0687 135.425 64.6154C135.13 65.1621 134.82 65.6737 134.496 66.1503L131.119 62.7231C132.202 62.3446 133.054 61.854 133.673 61.2513C134.292 60.6345 134.602 59.8425 134.602 58.8754C134.602 58.4128 134.51 57.9783 134.327 57.5718C134.144 57.1653 133.891 56.8148 133.567 56.5205C133.258 56.2121 132.885 55.9738 132.449 55.8056C132.012 55.6234 131.534 55.5323 131.013 55.5323C130.422 55.5323 129.887 55.6234 129.409 55.8056C128.93 55.9878 128.522 56.2401 128.184 56.5625C127.846 56.8709 127.579 57.2424 127.382 57.6769C127.199 58.0974 127.107 58.553 127.107 59.0436C127.107 59.6323 127.227 60.179 127.466 60.6836C127.706 61.1742 128.079 61.7138 128.585 62.3026C127.445 62.7511 126.566 63.3258 125.946 64.0267C125.327 64.7275 125.017 65.5756 125.017 66.5708C125.017 67.1875 125.13 67.7552 125.355 68.2739C125.594 68.7785 125.918 69.213 126.326 69.5775C126.749 69.9419 127.241 70.2223 127.804 70.4185C128.381 70.6147 129 70.7129 129.662 70.7129C130.633 70.7129 131.513 70.5166 132.301 70.1241C133.089 69.7176 133.821 69.1499 134.496 68.4211L136.819 70.797L138.085 69.8298ZM133.04 58.9595C133.04 59.6183 132.8 60.172 132.322 60.6205C131.843 61.0691 131.133 61.4545 130.19 61.7769C129.908 61.4826 129.669 61.2162 129.472 60.9779C129.289 60.7256 129.141 60.4943 129.029 60.2841C128.916 60.0738 128.832 59.8706 128.775 59.6743C128.733 59.4781 128.712 59.2678 128.712 59.0436C128.712 58.4268 128.916 57.9152 129.324 57.5087C129.732 57.1022 130.274 56.8989 130.95 56.8989C131.555 56.8989 132.054 57.0952 132.449 57.4877C132.843 57.8661 133.04 58.3567 133.04 58.9595ZM133.483 67.3908C132.948 67.9795 132.371 68.4491 131.752 68.7995C131.147 69.1359 130.492 69.3041 129.789 69.3041C129.338 69.3041 128.923 69.234 128.543 69.0939C128.163 68.9537 127.832 68.7575 127.551 68.5052C127.283 68.2528 127.072 67.9585 126.917 67.6221C126.777 67.2857 126.706 66.9142 126.706 66.5077C126.706 65.8769 126.931 65.2812 127.382 64.7205C127.832 64.1598 128.55 63.6973 129.535 63.3328L133.483 67.3908Z" fill="white"/>
<path d="M155.462 68.0426L151.239 55.7846H149.424L154.702 70.6077H156.095L160.169 58.6651L164.223 70.6077H165.637L170.915 55.7846H169.163L164.941 68.0426L160.887 55.7425H159.515L155.462 68.0426Z" fill="white"/>
<path d="M174.947 65.6667H183.603C183.617 65.5686 183.624 65.4774 183.624 65.3933C183.624 65.3092 183.624 65.2321 183.624 65.1621C183.624 64.3631 183.511 63.6132 183.286 62.9123C183.061 62.2115 182.73 61.6017 182.294 61.0831C181.858 60.5644 181.323 60.1579 180.689 59.8636C180.056 59.5552 179.338 59.401 178.536 59.401C177.776 59.401 177.072 59.5482 176.425 59.8425C175.792 60.1369 175.243 60.5434 174.778 61.062C174.314 61.5667 173.948 62.1694 173.68 62.8703C173.427 63.5571 173.3 64.293 173.3 65.078C173.3 65.919 173.441 66.6899 173.723 67.3908C174.018 68.0917 174.412 68.6944 174.905 69.199C175.398 69.6896 175.975 70.0751 176.636 70.3554C177.298 70.6217 178.001 70.7549 178.747 70.7549C179.789 70.7549 180.661 70.5727 181.365 70.2082C182.069 69.8298 182.695 69.3322 183.244 68.7154L182.231 67.8113C181.78 68.2739 181.281 68.6453 180.732 68.9257C180.197 69.206 179.549 69.3462 178.789 69.3462C178.311 69.3462 177.853 69.2691 177.417 69.1149C176.981 68.9467 176.587 68.7084 176.235 68.4C175.883 68.0776 175.595 67.6922 175.369 67.2436C175.144 66.781 175.003 66.2554 174.947 65.6667ZM174.947 64.4682C175.003 63.9356 175.13 63.445 175.327 62.9964C175.524 62.5479 175.778 62.1624 176.087 61.84C176.397 61.5036 176.756 61.2443 177.164 61.062C177.572 60.8658 178.015 60.7677 178.494 60.7677C179.043 60.7677 179.521 60.8728 179.929 61.0831C180.352 61.2793 180.703 61.5456 180.985 61.882C181.281 62.2185 181.506 62.6109 181.66 63.0595C181.829 63.508 181.935 63.9776 181.977 64.4682H174.947Z" fill="white"/>
<path d="M189.932 70.5026V55.1538H188.306V70.5026H189.932Z" fill="white"/>
<path d="M197.166 70.5026V55.1538H195.541V70.5026H197.166Z" fill="white"/>
<path d="M204.253 64.279C204.253 63.7744 204.331 63.3118 204.486 62.8913C204.655 62.4708 204.887 62.1133 205.182 61.819C205.478 61.5106 205.823 61.2793 206.217 61.1251C206.625 60.9569 207.061 60.8728 207.526 60.8728C208.497 60.8728 209.243 61.1672 209.763 61.7559C210.284 62.3446 210.545 63.1436 210.545 64.1528V70.5026H212.17V63.7533C212.17 63.1085 212.072 62.5198 211.875 61.9872C211.692 61.4545 211.417 60.999 211.051 60.6205C210.699 60.228 210.263 59.9267 209.742 59.7164C209.236 59.5061 208.652 59.401 207.99 59.401C207.047 59.401 206.28 59.6113 205.689 60.0318C205.098 60.4383 204.619 60.9359 204.253 61.5246V59.6323H202.628V70.5026H204.253V64.279Z" fill="white"/>
<path d="M218.297 65.6667H226.952C226.966 65.5686 226.974 65.4774 226.974 65.3933C226.974 65.3092 226.974 65.2321 226.974 65.1621C226.974 64.3631 226.861 63.6132 226.636 62.9123C226.411 62.2115 226.08 61.6017 225.643 61.0831C225.207 60.5644 224.672 60.1579 224.039 59.8636C223.406 59.5552 222.688 59.401 221.886 59.401C221.126 59.401 220.422 59.5482 219.775 59.8425C219.141 60.1369 218.592 60.5434 218.128 61.062C217.663 61.5667 217.298 62.1694 217.03 62.8703C216.777 63.5571 216.65 64.293 216.65 65.078C216.65 65.919 216.791 66.6899 217.072 67.3908C217.368 68.0917 217.762 68.6944 218.255 69.199C218.747 69.6896 219.324 70.0751 219.986 70.3554C220.647 70.6217 221.351 70.7549 222.097 70.7549C223.138 70.7549 224.011 70.5727 224.715 70.2082C225.418 69.8298 226.045 69.3322 226.594 68.7154L225.58 67.8113C225.13 68.2739 224.63 68.6453 224.081 68.9257C223.546 69.206 222.899 69.3462 222.139 69.3462C221.661 69.3462 221.203 69.2691 220.767 69.1149C220.331 68.9467 219.936 68.7084 219.585 68.4C219.233 68.0776 218.944 67.6922 218.719 67.2436C218.494 66.781 218.353 66.2554 218.297 65.6667ZM218.297 64.4682C218.353 63.9356 218.48 63.445 218.677 62.9964C218.874 62.5479 219.127 62.1624 219.437 61.84C219.746 61.5036 220.105 61.2443 220.513 61.062C220.922 60.8658 221.365 60.7677 221.843 60.7677C222.392 60.7677 222.871 60.8728 223.279 61.0831C223.701 61.2793 224.053 61.5456 224.335 61.882C224.63 62.2185 224.855 62.6109 225.01 63.0595C225.179 63.508 225.285 63.9776 225.327 64.4682H218.297Z" fill="white"/>
<path d="M239.003 67.4539V67.4118C239.003 66.9212 238.897 66.5077 238.686 66.1713C238.489 65.8349 238.221 65.5475 237.884 65.3092C237.546 65.071 237.166 64.8747 236.744 64.7205C236.336 64.5663 235.92 64.4262 235.498 64.3C235.132 64.1879 234.78 64.0757 234.443 63.9636C234.105 63.8515 233.802 63.7253 233.535 63.5851C233.281 63.445 233.077 63.2838 232.923 63.1015C232.768 62.9053 232.69 62.681 232.69 62.4287V62.3867C232.69 61.9381 232.88 61.5667 233.26 61.2723C233.64 60.9639 234.154 60.8097 234.801 60.8097C235.336 60.8097 235.878 60.9079 236.427 61.1041C236.99 61.2863 237.525 61.5386 238.031 61.861L238.77 60.6415C238.207 60.2771 237.581 59.9897 236.891 59.7795C236.202 59.5552 235.519 59.4431 234.844 59.4431C234.309 59.4431 233.809 59.5202 233.345 59.6743C232.894 59.8145 232.5 60.0248 232.163 60.3051C231.839 60.5714 231.585 60.9008 231.403 61.2933C231.22 61.6718 231.128 62.0923 231.128 62.5549V62.5969C231.128 63.1015 231.234 63.5221 231.445 63.8585C231.67 64.1949 231.951 64.4752 232.289 64.6995C232.641 64.9238 233.028 65.113 233.45 65.2672C233.887 65.4074 234.316 65.5405 234.738 65.6667C235.09 65.7648 235.428 65.8699 235.751 65.9821C236.089 66.0942 236.385 66.2274 236.638 66.3816C236.891 66.5217 237.088 66.6899 237.229 66.8862C237.384 67.0824 237.461 67.3137 237.461 67.58V67.6221C237.461 68.1547 237.25 68.5752 236.828 68.8836C236.406 69.192 235.864 69.3462 235.203 69.3462C234.555 69.3462 233.908 69.227 233.26 68.9887C232.627 68.7505 232.015 68.407 231.424 67.9585L230.6 69.1149C231.22 69.6055 231.93 69.998 232.733 70.2923C233.535 70.5727 234.33 70.7129 235.118 70.7129C235.667 70.7129 236.174 70.6428 236.638 70.5026C237.117 70.3484 237.525 70.1311 237.863 69.8508C238.214 69.5705 238.489 69.234 238.686 68.8416C238.897 68.4351 239.003 67.9725 239.003 67.4539Z" fill="white"/>
<path d="M251 67.4539V67.4118C251 66.9212 250.894 66.5077 250.683 66.1713C250.486 65.8349 250.219 65.5475 249.881 65.3092C249.543 65.071 249.163 64.8747 248.741 64.7205C248.333 64.5663 247.917 64.4262 247.495 64.3C247.129 64.1879 246.777 64.0757 246.44 63.9636C246.102 63.8515 245.799 63.7253 245.532 63.5851C245.279 63.445 245.074 63.2838 244.92 63.1015C244.765 62.9053 244.687 62.681 244.687 62.4287V62.3867C244.687 61.9381 244.877 61.5667 245.257 61.2723C245.637 60.9639 246.151 60.8097 246.799 60.8097C247.333 60.8097 247.875 60.9079 248.424 61.1041C248.987 61.2863 249.522 61.5386 250.029 61.861L250.767 60.6415C250.204 60.2771 249.578 59.9897 248.889 59.7795C248.199 59.5552 247.516 59.4431 246.841 59.4431C246.306 59.4431 245.806 59.5202 245.342 59.6743C244.891 59.8145 244.497 60.0248 244.16 60.3051C243.836 60.5714 243.583 60.9008 243.4 61.2933C243.217 61.6718 243.125 62.0923 243.125 62.5549V62.5969C243.125 63.1015 243.231 63.5221 243.442 63.8585C243.667 64.1949 243.949 64.4752 244.286 64.6995C244.638 64.9238 245.025 65.113 245.447 65.2672C245.884 65.4074 246.313 65.5405 246.735 65.6667C247.087 65.7648 247.425 65.8699 247.749 65.9821C248.086 66.0942 248.382 66.2274 248.635 66.3816C248.889 66.5217 249.086 66.6899 249.226 66.8862C249.381 67.0824 249.459 67.3137 249.459 67.58V67.6221C249.459 68.1547 249.247 68.5752 248.825 68.8836C248.403 69.192 247.861 69.3462 247.2 69.3462C246.552 69.3462 245.905 69.227 245.257 68.9887C244.624 68.7505 244.012 68.407 243.421 67.9585L242.597 69.1149C243.217 69.6055 243.927 69.998 244.73 70.2923C245.532 70.5727 246.327 70.7129 247.115 70.7129C247.664 70.7129 248.171 70.6428 248.635 70.5026C249.114 70.3484 249.522 70.1311 249.86 69.8508C250.212 69.5705 250.486 69.234 250.683 68.8416C250.894 68.4351 251 67.9725 251 67.4539Z" fill="white"/>
<path fill-rule="evenodd" clip-rule="evenodd" d="M4.05611e-06 9.771H5.56919V17.7637H5.56985C5.56988 27.9757 13.8376 36.254 24.0363 36.254C34.2242 36.254 42.4852 27.993 42.5026 17.7958H42.4992V9.771H48.0523V17.7637H48.0527C48.0527 24.1439 45.5213 30.2629 41.0154 34.7744C36.5097 39.2858 30.3985 41.8204 24.0263 41.8204C17.6542 41.8204 11.5429 39.2858 7.03715 34.7744C2.53889 30.2705 0.00849631 24.1644 2.13576e-05 17.7958H4.05611e-06V17.7777C1.35281e-06 17.773 0 17.7683 0 17.7637H4.05611e-06V9.771Z" fill="white"/>
<rect width="5.55561" height="18.6124" transform="matrix(-0.707107 0.707107 0.707107 0.707107 14.8184 0.535156)" fill="white"/>
<path fill-rule="evenodd" clip-rule="evenodd" d="M10.9302 13.1215C10.9302 13.1215 12.0084 9.75489 17.4824 9.75488C20.2234 9.75488 22.1768 10.6041 24.1216 11.4496C26.0488 12.2874 27.9674 13.1215 30.6355 13.1215C35.9956 13.1215 37.1547 9.75488 37.1547 9.75488L37.1471 17.8362H37.1477C37.1477 19.5591 36.8087 21.2652 36.1498 22.857C35.4911 24.4489 34.5254 25.8952 33.3082 27.1135C32.0909 28.3318 30.6459 29.2983 29.0554 29.9576C27.4649 30.6169 25.7602 30.9563 24.0387 30.9563C22.3172 30.9563 20.6126 30.6169 19.0221 29.9576C17.4317 29.2983 15.9865 28.3318 14.7692 27.1135C13.5519 25.8952 12.5863 24.4489 11.9276 22.857C11.2688 21.2652 10.9297 19.5591 10.9297 17.8362H10.9302V13.1215Z" fill="#00FFE0"/>
<path fill-rule="evenodd" clip-rule="evenodd" d="M131.576 41.8289C140.43 41.8289 147.608 34.6509 147.608 25.7963C147.608 16.9417 140.43 9.76367 131.576 9.76367C122.721 9.76367 115.543 16.9417 115.543 25.7963C115.543 34.6509 122.721 41.8289 131.576 41.8289ZM131.575 36.3738C137.417 36.3738 142.153 31.6381 142.153 25.7963C142.153 19.9544 137.417 15.2187 131.575 15.2187C125.733 15.2187 120.998 19.9544 120.998 25.7963C120.998 31.6381 125.733 36.3738 131.575 36.3738Z" fill="white"/>
<path fill-rule="evenodd" clip-rule="evenodd" d="M85.9354 25.7963C85.9354 34.6509 78.7573 41.8289 69.9027 41.8289C65.8478 41.8289 62.1446 40.3236 59.3212 37.8413V49.9521H53.8701V25.7963V9.76367H59.3212V13.7513C62.1446 11.269 65.8478 9.76367 69.9027 9.76367C78.7573 9.76367 85.9354 16.9417 85.9354 25.7963ZM80.4798 25.7962C80.4798 31.6381 75.7441 36.3738 69.9023 36.3738C64.0605 36.3738 59.3247 31.6381 59.3247 25.7962C59.3247 19.9544 64.0605 15.2187 69.9023 15.2187C75.7441 15.2187 80.4798 19.9544 80.4798 25.7962Z" fill="white"/>
<path fill-rule="evenodd" clip-rule="evenodd" d="M95.3769 0.5H100.828V9.7633H111.41V15.2144H100.828V25.7959H100.832V25.796C100.832 31.6376 105.568 36.3732 111.41 36.3735V41.8285C109.304 41.8285 107.219 41.4138 105.274 40.6083C103.329 39.8024 101.561 38.6213 100.073 37.1328C98.584 35.6439 97.403 33.8765 96.5973 31.9314C95.7961 29.9971 95.3816 27.9249 95.3769 25.8315H95.3769V25.7959V15.2144H89.9258L89.9258 9.7633H95.3769V0.5Z" fill="white"/>
<path fill-rule="evenodd" clip-rule="evenodd" d="M159.294 9.76367H153.843V25.8319C153.852 30.0712 155.54 34.1348 158.539 37.1331C161.545 40.1398 165.623 41.8289 169.875 41.8289C174.128 41.8289 178.206 40.1398 181.212 37.1331C181.95 36.3951 182.609 35.5926 183.182 34.7389C183.756 35.5926 184.415 36.3951 185.153 37.1331C188.159 40.1398 192.237 41.8289 196.49 41.8289C200.742 41.8289 204.82 40.1398 207.826 37.1331C210.825 34.1348 212.513 30.0712 212.522 25.8319V25.8046V25.7963V9.76367H207.071V25.7963H207.068C207.068 31.6382 202.332 36.3739 196.49 36.3739C190.648 36.3739 185.912 31.6382 185.912 25.7963H185.908V9.76367H180.457V25.7963H180.453C180.453 31.6382 175.718 36.3739 169.876 36.3739C164.034 36.3739 159.298 31.6382 159.298 25.7963H159.294V9.76367Z" fill="white"/>
<path fill-rule="evenodd" clip-rule="evenodd" d="M224.386 9.76367H218.935V25.7607V25.788V25.7963V41.8289H224.386V25.7963H224.389C224.389 19.9544 229.125 15.2187 234.967 15.2187C240.809 15.2187 245.544 19.9544 245.544 25.7963H245.549V41.8289H251V25.7607C250.99 21.5214 249.302 17.4578 246.304 14.4595C243.297 11.4528 239.219 9.76367 234.967 9.76367C231.061 9.76367 227.302 11.1889 224.386 13.7515V9.76367Z" fill="white"/>
</svg>
