<svg width="168" height="27" viewBox="0 0 168 27" fill="none" xmlns="http://www.w3.org/2000/svg">
<path d="M13.2167 0L16.184 9.13249H25.7865L18.0179 14.7767L20.9852 23.9092L13.2167 18.265L5.4481 23.9092L8.41543 14.7767L0.64687 9.13249H10.2493L13.2167 0Z" fill="#00FFE0"/>
<path d="M48.4608 0L51.4281 9.13249H61.0306L53.262 14.7767L56.2294 23.9092L48.4608 18.265L40.6922 23.9092L43.6596 14.7767L35.891 9.13249H45.4935L48.4608 0Z" fill="#00FFE0"/>
<path d="M83.7049 0L86.6723 9.13249H96.2747L88.5062 14.7767L91.4735 23.9092L83.7049 18.265L75.9364 23.9092L78.9037 14.7767L71.1352 9.13249H80.7376L83.7049 0Z" fill="#00FFE0"/>
<path d="M118.95 0L121.917 9.13249H131.52L123.751 14.7767L126.719 23.9092L118.95 18.265L111.182 23.9092L114.149 14.7767L106.38 9.13249H115.983L118.95 0Z" fill="#00FFE0"/>
<path d="M154.195 0L157.163 9.13249H166.765L158.996 14.7767L161.964 23.9092L154.195 18.265L146.427 23.9092L149.394 14.7767L141.625 9.13249H151.228L154.195 0Z" fill="#00FFE0"/>
</svg>
