<svg width="7" height="7" viewBox="0 0 7 7" fill="none" xmlns="http://www.w3.org/2000/svg">
<circle cx="3.5" cy="3.5" r="3.5" fill="url(#paint0_linear_163_8575)"/>
<defs>
<linearGradient id="paint0_linear_163_8575" x1="3.5" y1="0" x2="3.5" y2="7" gradientUnits="userSpaceOnUse">
<stop stop-color="#00FFE0"/>
<stop offset="1" stop-color="#00BCA5"/>
</linearGradient>
</defs>
</svg>
