<svg width="95" height="95" viewBox="0 0 95 95" fill="none" xmlns="http://www.w3.org/2000/svg">
<rect width="95" height="95" fill="url(#paint0_linear_261_534)"/>
<g filter="url(#filter0_d_261_534)">
<path fill-rule="evenodd" clip-rule="evenodd" d="M48 24H63L63 39L63 40L63 52C63 59.2569 57.8467 65.3101 51 66.6999V70H49V78H47V70H45V66.6999C38.1533 65.3101 33 59.2569 33 52V40V39V24H48ZM36.0005 47.1759C36.0005 47.1759 36.9872 44 41.9968 44C44.5052 44 46.2929 44.8011 48.0727 45.5986C49.8364 46.389 51.5922 47.1759 54.0339 47.1759C58.9393 47.1759 60 44 60 44L59.9931 51.6234H59.9937C59.9937 53.2486 59.6834 54.8581 59.0804 56.3597C58.4776 57.8613 57.5938 59.2257 56.4799 60.3749C55.3659 61.5242 54.0434 62.4359 52.5879 63.0578C51.1324 63.6798 49.5722 64 47.9969 64C46.4214 64 44.8614 63.6798 43.4058 63.0578C41.9503 62.4359 40.6278 61.5242 39.5138 60.3749C38.3998 59.2257 37.5161 57.8613 36.9132 56.3597C36.3103 54.8581 36 53.2486 36 51.6234H36.0005V47.1759ZM44.854 34.2447L48.0008 29L51.1526 34.2531C51.6835 34.932 52 35.7867 52 36.7153C52 38.9245 50.2091 40.7153 48 40.7153C45.7909 40.7153 44 38.9245 44 36.7153C44 35.7828 44.3191 34.9249 44.854 34.2447Z" fill="white"/>
</g>
<defs>
<filter id="filter0_d_261_534" x="23" y="14" width="50" height="74" filterUnits="userSpaceOnUse" color-interpolation-filters="sRGB">
<feFlood flood-opacity="0" result="BackgroundImageFix"/>
<feColorMatrix in="SourceAlpha" type="matrix" values="0 0 0 0 0 0 0 0 0 0 0 0 0 0 0 0 0 0 127 0" result="hardAlpha"/>
<feOffset/>
<feGaussianBlur stdDeviation="5"/>
<feComposite in2="hardAlpha" operator="out"/>
<feColorMatrix type="matrix" values="0 0 0 0 0 0 0 0 0 1 0 0 0 0 0.88 0 0 0 1 0"/>
<feBlend mode="normal" in2="BackgroundImageFix" result="effect1_dropShadow_261_534"/>
<feBlend mode="normal" in="SourceGraphic" in2="effect1_dropShadow_261_534" result="shape"/>
</filter>
<linearGradient id="paint0_linear_261_534" x1="-7.32426" y1="27.7083" x2="101.309" y2="28.178" gradientUnits="userSpaceOnUse">
<stop stop-color="#00FFE0"/>
<stop offset="1" stop-color="#00BCA5"/>
</linearGradient>
</defs>
</svg>
