<svg width="46" height="40" viewBox="0 0 46 40" fill="none" xmlns="http://www.w3.org/2000/svg">
<path fill-rule="evenodd" clip-rule="evenodd" d="M3.88284e-06 8.84082H5.33129V16.4921H5.33192C5.33195 26.2679 13.2465 34.1926 23.0095 34.1926C32.7623 34.1926 40.6704 26.2844 40.687 16.5228H40.6838V8.84082H45.9997V16.4921H46C46 22.5998 43.5768 28.4574 39.2634 32.7762C34.9501 37.0948 29.1 39.5211 23 39.5211C16.9 39.5211 11.0499 37.0948 6.73654 32.7762C2.43044 28.4646 0.00813337 22.6194 2.04453e-05 16.5228H3.88284e-06V16.5055C1.29502e-06 16.501 0 16.4965 0 16.4921H3.88284e-06V8.84082Z" fill="#082840"/>
<rect width="5.31829" height="17.8174" transform="matrix(-0.707107 0.707107 0.707107 0.707107 14.1855 0)" fill="#082840"/>
<path fill-rule="evenodd" clip-rule="evenodd" d="M10.4634 12.048C10.4634 12.048 11.4955 8.8252 16.7357 8.8252C19.3596 8.82519 21.2296 9.63817 23.0912 10.4475C24.9362 11.2496 26.7728 12.048 29.3269 12.048C34.4581 12.048 35.5676 8.8252 35.5676 8.8252L35.5604 16.5613H35.561C35.561 18.2106 35.2364 19.8438 34.6057 21.3677C33.9751 22.8915 33.0507 24.2761 31.8855 25.4423C30.7202 26.6086 29.3368 27.5337 27.8143 28.1649C26.2918 28.7961 24.6599 29.121 23.012 29.121C21.364 29.121 19.7321 28.7961 18.2096 28.1649C16.6871 27.5337 15.3037 26.6086 14.1384 25.4423C12.9731 24.2761 12.0488 22.8915 11.4181 21.3677C10.7875 19.8438 10.4629 18.2106 10.4629 16.5613H10.4634V12.048Z" fill="url(#paint0_linear_229_1717)"/>
<defs>
<linearGradient id="paint0_linear_229_1717" x1="23.0152" y1="8.8252" x2="23.0152" y2="29.121" gradientUnits="userSpaceOnUse">
<stop stop-color="#00FFE0"/>
<stop offset="1" stop-color="#00BCA5"/>
</linearGradient>
</defs>
</svg>
