<svg width="48" height="48" viewBox="0 0 48 48" fill="none" xmlns="http://www.w3.org/2000/svg">
<rect width="48" height="48" fill="url(#paint0_linear_298_1107)"/>
<path fill-rule="evenodd" clip-rule="evenodd" d="M14 13V33L18.878 37H34V12H14V13ZM23 15H25V17H27V19H25V21H23V19H21V17H23V15ZM19 32H14V33H19V37H20V33V32H19ZM18.0041 24.7927L20.6455 27.4341L21.3741 26.7055L19.8253 25.1567L30 25.1567V24.1567L19.9155 24.1567L21.4307 22.6416L20.7886 21.9995L18.0001 24.788L18.0045 24.7924L18.0041 24.7927ZM29.9959 28.8635L27.3545 26.2222L26.6259 26.9508L28.1751 28.5L18 28.5V29.5H28.084L26.5693 31.0146L27.2114 31.6567L29.9999 28.8683L29.9955 28.8639L29.9959 28.8635Z" fill="white"/>
<defs>
<linearGradient id="paint0_linear_298_1107" x1="-3.70068" y1="14" x2="51.1875" y2="14.2373" gradientUnits="userSpaceOnUse">
<stop stop-color="#00FFE0"/>
<stop offset="1" stop-color="#00BCA5"/>
</linearGradient>
</defs>
</svg>
