<svg width="59" height="59" viewBox="0 0 59 59" fill="none" xmlns="http://www.w3.org/2000/svg">
<rect x="0.664062" y="0.129883" width="58.2204" height="58.2204" rx="5" fill="url(#paint0_linear_188_5770)"/>
<rect x="0.664062" y="0.129883" width="58.2204" height="58.2204" rx="5" fill="url(#paint1_linear_188_5770)"/>
<path fill-rule="evenodd" clip-rule="evenodd" d="M47 29.8249L30 14L13 29.8249H17.9738V44H19.5312H39.9219H42L42.0262 29.8249H47ZM31 26H29V29H26V31H29V34H31V31H34V29H31V26Z" fill="white"/>
<defs>
<linearGradient id="paint0_linear_188_5770" x1="4.7497" y1="0.129883" x2="56.3546" y2="57.7383" gradientUnits="userSpaceOnUse">
<stop stop-color="#00FFE0"/>
<stop offset="1" stop-color="#00BCA5"/>
</linearGradient>
<linearGradient id="paint1_linear_188_5770" x1="4.7497" y1="0.129883" x2="56.3546" y2="57.7383" gradientUnits="userSpaceOnUse">
<stop stop-color="#00FFE0"/>
<stop offset="1" stop-color="#00BCA5"/>
</linearGradient>
</defs>
</svg>
